…
    ## New names:
    ## • `` -> `...2`
    ## • `` -> `...3`
    ## • `` -> `...4`
    ## • `` -> `...5`

``` r
dog
```

    ## # A tibble: 126 × 6
    ##    Date       std     type   lbs   oz    weights_lbs
    ##    <date>     <chr>   <chr>  <chr> <chr>       <dbl>
    ##  1 2018-08-19 20 15.8 Raisin 20    03           20.2
    ##  2 2018-08-19 20 15.8 Simone 11    02           11.1
    ##  3 2018-08-19 20 15.8 Gagne  10    12           10.8
    ##  4 2018-08-22 20 15.6 Raisin 20    04           20.2
    ##  5 2018-08-22 20 15.6 Simone 11    04           11.2
    ##  6 2018-08-22 20 15.6 Gagne  10    13           10.8
    ##  7 2018-08-24 20 15.6 Raisin 19    13           19.8
    ##  8 2018-08-24 20 15.6 Simone 11    04           11.2
    ##  9 2018-08-24 20 15.6 Gagne  11    01           11.1
    ## 10 2018-08-27 20 15.6 Raisin 19    06           19.4
    ## # … with 116 more rows
…
    ## New names:
    ## • `` -> `...2`
    ## • `` -> `...3`
    ## • `` -> `...4`
    ## • `` -> `...5`

``` r
notes_df
```

    ## # A tibble: 26 × 2
    ##    Date       notes                                                             
    ##    <date>     <chr>                                                             
    ##  1 2018-08-27 Right after leaving for 3 days at Weber's                         
    ##  2 2018-09-04 at camp bow wow                                                   
    ##  3 2018-10-01 dogs at Webers from Sept 18-30                                    
    ##  4 2018-10-09 dogs at Webers from Oct 5-8                                       
    ##  5 2018-10-16 on 10/15 all had hair cuts                                        
    ##  6 2018-10-22 dogs at Webers from Oct 18-22                                     
    ##  7 2018-11-18 dogs at Webers from Nov 10-17                                     
    ##  8 2019-01-08 Simone/Gagne  at Webers from Dec 20-Jan 4, Raisin at PC Dec 20-Ja…
    ##  9 2019-09-06 Gagne died 9/8/2019                                               
    ## 10 2019-11-04 on vacation? Dogs at kennel?                                      
    ## # … with 16 more rows
…
